<?xml version="1.0" encoding="UTF-8" standalone="no"?>
<svg
   xmlns:dc="http://purl.org/dc/elements/1.1/"
   xmlns:cc="http://creativecommons.org/ns#"
   xmlns:rdf="http://www.w3.org/1999/02/22-rdf-syntax-ns#"
   xmlns:svg="http://www.w3.org/2000/svg"
   xmlns="http://www.w3.org/2000/svg"
   xmlns:sodipodi="http://sodipodi.sourceforge.net/DTD/sodipodi-0.dtd"
   xmlns:inkscape="http://www.inkscape.org/namespaces/inkscape"
   viewBox="0 0 128 128"
   version="1.1"
   id="svg68"
   sodipodi:docname="bold.svg"
   width="128"
   height="128"
   inkscape:version="0.92.5 (2060ec1f9f, 2020-04-08)">
  <metadata
     id="metadata72">
    <rdf:RDF>
      <cc:Work
         rdf:about="">
        <dc:format>image/svg+xml</dc:format>
        <dc:type
           rdf:resource="http://purl.org/dc/dcmitype/StillImage" />
        <dc:title></dc:title>
      </cc:Work>
    </rdf:RDF>
  </metadata>
  <sodipodi:namedview
     pagecolor="#ffffff"
     bordercolor="#666666"
     borderopacity="1"
     objecttolerance="10"
     gridtolerance="10"
     guidetolerance="10"
     inkscape:pageopacity="0"
     inkscape:pageshadow="2"
     inkscape:window-width="869"
     inkscape:window-height="480"
     id="namedview70"
     showgrid="false"
     inkscape:zoom="0.61458333"
     inkscape:cx="-16.577417"
     inkscape:cy="46.294811"
     inkscape:window-x="0"
     inkscape:window-y="0"
     inkscape:window-maximized="0"
     inkscape:current-layer="svg68" />
  <defs
     id="defs3051">
    <style
       type="text/css"
       id="current-color-scheme">
      .ColorScheme-Text {
        color:#232629;
      }
      </style>
  </defs>
  <g
     transform="matrix(6.7886877,0,0,6.7886877,-11.188603,-9.587253)"
     id="g66">
    <path
       style="color:#232629;fill:currentColor;fill-opacity:1;stroke:none"
       d="M 3.5,3 C 3.3286269,3 3.1646509,3.0248281 3,3.0488281 V 5 c 1.108,0 2,0.892 2,2 v 3 5 c 0,1.108 -0.892,2 -2,2 v 1.951172 C 3.1646509,18.975172 3.3286269,19 3.5,19 H 5 9 14 c 2.769995,0 5,-2.23 5,-5 C 19,11.7951 17.577117,9.9533563 15.603516,9.2851562 16.447639,8.6468562 17,7.6443 17,6.5 17,4.561 15.439,3 13.5,3 H 9 5 Z M 9,5 h 2 c 1.108,0 2,0.892 2,2 0,1.108 -0.892,2 -2,2 H 9 Z m 0,6 h 3 c 1.662,0 3,1.338 3,3 0,1.662 -1.338,3 -3,3 H 9 Z"
       class="ColorScheme-Text"
       id="path64"
       inkscape:connector-curvature="0" />
  </g>
</svg>
