<?xml version="1.0" encoding="UTF-8" standalone="no"?>
<!-- Created with Inkscape (http://www.inkscape.org/) -->

<svg
   xmlns:dc="http://purl.org/dc/elements/1.1/"
   xmlns:cc="http://creativecommons.org/ns#"
   xmlns:rdf="http://www.w3.org/1999/02/22-rdf-syntax-ns#"
   xmlns:svg="http://www.w3.org/2000/svg"
   xmlns="http://www.w3.org/2000/svg"
   xmlns:xlink="http://www.w3.org/1999/xlink"
   xmlns:sodipodi="http://sodipodi.sourceforge.net/DTD/sodipodi-0.dtd"
   xmlns:inkscape="http://www.inkscape.org/namespaces/inkscape"
   width="128"
   version="1.1"
   height="128"
   viewBox="0 0 128 128"
   id="svg17"
   sodipodi:docname="folder-presentations.svg"
   inkscape:version="0.92.5 (2060ec1f9f, 2020-04-08)">
  <sodipodi:namedview
     pagecolor="#ffffff"
     bordercolor="#666666"
     borderopacity="1"
     objecttolerance="10"
     gridtolerance="10"
     guidetolerance="10"
     inkscape:pageopacity="0"
     inkscape:pageshadow="2"
     inkscape:window-width="1050"
     inkscape:window-height="544"
     id="namedview19"
     showgrid="false"
     inkscape:zoom="1.84375"
     inkscape:cx="34.346917"
     inkscape:cy="80.893251"
     inkscape:window-x="0"
     inkscape:window-y="0"
     inkscape:window-maximized="0"
     inkscape:current-layer="layer1" />
  <defs
     id="defs5455">
    <linearGradient
       inkscape:collect="always"
       id="linearGradient4172-5">
      <stop
         style="stop-color:#3daee9"
         id="stop4174-6" />
      <stop
         offset="1"
         style="stop-color:#6cc1ef"
         id="stop4176-6" />
    </linearGradient>
    <linearGradient
       inkscape:collect="always"
       id="linearGradient4342"
       xlink:href="#linearGradient4172-5"
       y1="29"
       y2="8"
       gradientUnits="userSpaceOnUse"
       x2="0" />
  </defs>
  <metadata
     id="metadata5458">
    <rdf:RDF>
      <cc:Work
         rdf:about="">
        <dc:format>image/svg+xml</dc:format>
        <dc:type
           rdf:resource="http://purl.org/dc/dcmitype/StillImage" />
        <dc:title></dc:title>
      </cc:Work>
    </rdf:RDF>
  </metadata>
  <g
     inkscape:label="Capa 1"
     inkscape:groupmode="layer"
     id="layer1"
     transform="translate(-384.57143,-419.798)">
    <g
       inkscape:label="Capa 1"
       id="layer1-0"
       transform="matrix(4.0873533,0,0,4.0873533,-1188.2257,-1687.4076)">
      <path
         inkscape:connector-curvature="0"
         style="fill:#147eb8;fill-rule:evenodd"
         id="path4308"
         d="m 386.57144,518.798 v 7 1 h 28 v -6 h -14.00001 l -2,-2 z" />
      <path
         inkscape:connector-curvature="0"
         style="fill-opacity:0.235294;fill-rule:evenodd"
         id="path4306"
         d="m 397.57143,523.798 -1.99999,1 h -9 v 1 h 6.99999 3 z" />
      <path
         inkscape:connector-curvature="0"
         style="fill:url(#linearGradient4342)"
         id="rect4294"
         d="m 13,8 -2,2 H 2 1 v 19 h 11 1 18 V 8 Z"
         transform="translate(384.57143,515.798)" />
      <path
         inkscape:connector-curvature="0"
         style="fill:#ffffff;fill-opacity:0.235294;fill-rule:evenodd"
         id="path4304"
         d="m 397.57143,523.798 -2,2 h -10 v 1 h 11 z" />
      <path
         inkscape:connector-curvature="0"
         style="fill:#ffffff;fill-opacity:0.235294;fill-rule:evenodd"
         id="path4310"
         d="m 398.57143,518.798 1,3 h 15.00001 v -1 h -14.00001 z" />
      <rect
         width="30"
         x="385.57144"
         y="543.79797"
         height="1"
         style="fill-opacity:0.235294"
         id="rect4292" />
    </g>
    <g
       id="g6"
       transform="matrix(3.77404,0,0,3.77404,409.22648,459.09712)"
       style="fill:#1272a5">
      <path
         id="path4"
         class="ColorScheme-Text"
         d="M 2,3 V 15 H 20 V 3 Z M 3,4 H 19 V 14 H 3 Z m 6,2 v 6 l 4,-3 z m 0,10 v 2 H 8 v 1 h 6 v -1 h -1 v -2 h -1 v 2 h -2 v -2 z"
         style="color:#232629;fill:#1272a5;fill-opacity:1;stroke:none"
         inkscape:connector-curvature="0" />
    </g>
  </g>
</svg>
