<?xml version="1.0" encoding="UTF-8" standalone="no"?>
<svg
   xmlns:dc="http://purl.org/dc/elements/1.1/"
   xmlns:cc="http://creativecommons.org/ns#"
   xmlns:rdf="http://www.w3.org/1999/02/22-rdf-syntax-ns#"
   xmlns:svg="http://www.w3.org/2000/svg"
   xmlns="http://www.w3.org/2000/svg"
   xmlns:xlink="http://www.w3.org/1999/xlink"
   version="1.0"
   id="svg1307"
   height="128"
   width="128">
  <defs
     id="defs1309">
    <linearGradient
       id="linearGradient2678">
      <stop
         id="stop2680"
         offset="0"
         style="stop-color:#000000;stop-opacity:1;" />
      <stop
         id="stop2682"
         offset="1"
         style="stop-color:#000000;stop-opacity:0;" />
    </linearGradient>
    <linearGradient
       id="linearGradient2664">
      <stop
         id="stop2666"
         offset="0"
         style="stop-color:#000000;stop-opacity:1;" />
      <stop
         id="stop2668"
         offset="1"
         style="stop-color:#000000;stop-opacity:0;" />
    </linearGradient>
    <linearGradient
       id="linearGradient2612">
      <stop
         id="stop2614"
         offset="0"
         style="stop-color:#000000;stop-opacity:1;" />
      <stop
         id="stop2616"
         offset="1"
         style="stop-color:#000000;stop-opacity:0;" />
    </linearGradient>
    <linearGradient
       id="linearGradient2566">
      <stop
         id="stop2568"
         offset="0"
         style="stop-color:#cacaca;stop-opacity:1;" />
      <stop
         id="stop2570"
         offset="1"
         style="stop-color:#a5a5a5;stop-opacity:1;" />
    </linearGradient>
    <linearGradient
       id="linearGradient2354">
      <stop
         id="stop2356"
         offset="0"
         style="stop-color:#000000;stop-opacity:1;" />
      <stop
         id="stop2358"
         offset="1"
         style="stop-color:#000000;stop-opacity:0;" />
    </linearGradient>
    <linearGradient
       id="linearGradient2301">
      <stop
         id="stop2303"
         offset="0"
         style="stop-color:#dcdcdc;stop-opacity:1;" />
      <stop
         id="stop2305"
         offset="1"
         style="stop-color:#dcdcdc;stop-opacity:0;" />
    </linearGradient>
    <linearGradient
       id="linearGradient2285">
      <stop
         id="stop2287"
         offset="0"
         style="stop-color:#5e5e5e;stop-opacity:1;" />
      <stop
         style="stop-color:#dedede;stop-opacity:1;"
         offset="0.75901806"
         id="stop2293" />
      <stop
         id="stop2295"
         offset="0.93379617"
         style="stop-color:#8d8d8d;stop-opacity:1;" />
      <stop
         id="stop2289"
         offset="1"
         style="stop-color:#616161;stop-opacity:1;" />
    </linearGradient>
    <linearGradient
       id="linearGradient3075">
      <stop
         style="stop-color:#ffffff;stop-opacity:1;"
         offset="0"
         id="stop3077" />
      <stop
         id="stop3093"
         offset="0.42597079"
         style="stop-color:#ffffff;stop-opacity:1;" />
      <stop
         id="stop3085"
         offset="0.5892781"
         style="stop-color:#f1f1f1;stop-opacity:1;" />
      <stop
         style="stop-color:#eaeaea;stop-opacity:1;"
         offset="0.80219781"
         id="stop3087" />
      <stop
         style="stop-color:#dfdfdf;stop-opacity:1;"
         offset="1"
         id="stop3079" />
    </linearGradient>
    <radialGradient
       r="4.9659114"
       fy="122.4772"
       fx="33.78273"
       cy="121.95814"
       cx="36.747746"
       gradientTransform="matrix(1,0,0,0.316667,0,83.33806)"
       gradientUnits="userSpaceOnUse"
       id="radialGradient2766"
       xlink:href="#linearGradient2664" />
    <radialGradient
       r="4.9659114"
       fy="122.4772"
       fx="33.78273"
       cy="121.95814"
       cx="36.747746"
       gradientTransform="matrix(1,0,0,0.316667,0,83.33806)"
       gradientUnits="userSpaceOnUse"
       id="radialGradient2768"
       xlink:href="#linearGradient2664" />
    <linearGradient
       y2="86.916698"
       x2="48.092775"
       y1="86.916698"
       x1="38.357395"
       gradientTransform="matrix(0.42,0,0,0.243471,46.16647,89.58039)"
       gradientUnits="userSpaceOnUse"
       id="linearGradient2770"
       xlink:href="#linearGradient2285" />
    <linearGradient
       y2="79.413818"
       x2="44.111984"
       y1="79.413818"
       x1="41.109016"
       spreadMethod="reflect"
       gradientTransform="matrix(1.17687,0,0,0.651123,16.90569,67.68247)"
       gradientUnits="userSpaceOnUse"
       id="linearGradient2772"
       xlink:href="#linearGradient2301" />
    <linearGradient
       y2="86.916698"
       x2="48.092775"
       y1="86.916698"
       x1="38.357395"
       gradientTransform="matrix(0.42,0,0,0.42,-74.77859,87.80614)"
       gradientUnits="userSpaceOnUse"
       id="linearGradient2774"
       xlink:href="#linearGradient2285" />
    <linearGradient
       y2="79.413818"
       x2="44.111984"
       y1="79.413818"
       x1="41.109016"
       spreadMethod="reflect"
       gradientTransform="matrix(1.17687,0,0,1.123223,-104.0394,50.03107)"
       gradientUnits="userSpaceOnUse"
       id="linearGradient2776"
       xlink:href="#linearGradient2301" />
    <linearGradient
       y2="86.916698"
       x2="48.092775"
       y1="86.916698"
       x1="38.357395"
       gradientTransform="matrix(0.42,0,0,0.42,-139.0782,-23.58163)"
       gradientUnits="userSpaceOnUse"
       id="linearGradient2778"
       xlink:href="#linearGradient2285" />
    <linearGradient
       y2="79.413818"
       x2="44.111984"
       y1="79.413818"
       x1="41.109016"
       spreadMethod="reflect"
       gradientTransform="matrix(1.17687,0,0,1.123223,-168.339,-61.3567)"
       gradientUnits="userSpaceOnUse"
       id="linearGradient2780"
       xlink:href="#linearGradient2301" />
    <linearGradient
       y2="106.68057"
       x2="65.09919"
       y1="122.79063"
       x1="65.788818"
       gradientTransform="translate(-0.572807,-0.745747)"
       gradientUnits="userSpaceOnUse"
       id="linearGradient2782"
       xlink:href="#linearGradient2354" />
    <radialGradient
       r="45"
       fy="80.973824"
       fx="-10.101027"
       cy="80.973824"
       cx="-10.101027"
       gradientTransform="matrix(4.712709,-9.938109e-2,9.613262e-2,5.78635,104.6613,-265.1142)"
       gradientUnits="userSpaceOnUse"
       id="radialGradient2784"
       xlink:href="#linearGradient3075" />
    <linearGradient
       y2="16.715311"
       x2="27.663315"
       y1="13.248468"
       x1="27.663315"
       gradientTransform="translate(1.024567,0.512284)"
       gradientUnits="userSpaceOnUse"
       id="linearGradient2786"
       xlink:href="#linearGradient2612" />
    <linearGradient
       y2="15.646066"
       x2="67.84771"
       y1="5.7671132"
       x1="67.84771"
       gradientTransform="translate(1.024567,0.512284)"
       gradientUnits="userSpaceOnUse"
       id="linearGradient2788"
       xlink:href="#linearGradient2566" />
    <linearGradient
       y2="15.646066"
       x2="67.84771"
       y1="5.7671132"
       x1="67.84771"
       gradientTransform="matrix(1,0,0,0.106463,1.024567,6.200674)"
       gradientUnits="userSpaceOnUse"
       id="linearGradient2790"
       xlink:href="#linearGradient3075" />
    <radialGradient
       r="3.7244337"
       fy="122.04091"
       fx="64.63961"
       cy="122.04091"
       cx="64.63961"
       gradientTransform="matrix(1,0,0,0.844444,0,18.98414)"
       gradientUnits="userSpaceOnUse"
       id="radialGradient2792"
       xlink:href="#linearGradient2678" />
    <linearGradient
       y2="15.646066"
       x2="67.84771"
       y1="5.7671132"
       x1="67.84771"
       gradientTransform="matrix(1,0,0,3.347064e-2,1.024567,11.62163)"
       gradientUnits="userSpaceOnUse"
       id="linearGradient2794"
       xlink:href="#linearGradient2664" />
    <linearGradient
       id="linearGradient3185">
      <stop
         style="stop-color:#0057ae;stop-opacity:1;"
         offset="0"
         id="stop3187" />
      <stop
         id="stop3193"
         offset="0.95604396"
         style="stop-color:#0057ae;stop-opacity:1;" />
      <stop
         style="stop-color:#0057ae;stop-opacity:0;"
         offset="1"
         id="stop3189" />
    </linearGradient>
    <linearGradient
       id="XMLID_8_"
       gradientUnits="userSpaceOnUse"
       x1="73.417"
       y1="75.5"
       x2="95.583"
       y2="75.5"
       gradientTransform="translate(-53.68182,-35.27273)">
      <stop
         offset="0"
         style="stop-color:#1C1C1C"
         id="stop497" />
      <stop
         offset="0.1202"
         style="stop-color:#3D3E3C"
         id="stop499" />
      <stop
         offset="0.288"
         style="stop-color:#666764"
         id="stop501" />
      <stop
         offset="0.4205"
         style="stop-color:#7F817C"
         id="stop503" />
      <stop
         offset="0.5"
         style="stop-color:#888A85"
         id="stop505" />
      <stop
         offset="0.5812"
         style="stop-color:#7E807B"
         id="stop507" />
      <stop
         offset="0.7203"
         style="stop-color:#636461"
         id="stop509" />
      <stop
         offset="0.8995"
         style="stop-color:#373837"
         id="stop511" />
      <stop
         offset="1"
         style="stop-color:#1C1C1C"
         id="stop513" />
    </linearGradient>
    <linearGradient
       id="path360_1_"
       gradientUnits="userSpaceOnUse"
       x1="208.375"
       y1="-206.6973"
       x2="238.99071"
       y2="-206.6973"
       gradientTransform="matrix(1.1643,0,0,-1.1643,-295.544,-204.3821)">
      <stop
         offset="0"
         style="stop-color:#000000"
         id="stop370" />
      <stop
         offset="0.236"
         style="stop-color:#4D4D4D"
         id="stop372" />
      <stop
         offset="0.427"
         style="stop-color:#969696"
         id="stop374" />
      <stop
         offset="0.5169"
         style="stop-color:#D3D7CF"
         id="stop376" />
      <stop
         offset="0.618"
         style="stop-color:#BBBBBB"
         id="stop378" />
      <stop
         offset="0.736"
         style="stop-color:#575757"
         id="stop380" />
      <stop
         offset="1"
         style="stop-color:#000000"
         id="stop382" />
    </linearGradient>
    <linearGradient
       id="path331_1_"
       gradientUnits="userSpaceOnUse"
       x1="208.37601"
       y1="-204.8994"
       x2="238.9912"
       y2="-204.8994"
       gradientTransform="matrix(1.1643,0,0,-1.1643,-295.544,-204.3821)">
      <stop
         offset="0"
         style="stop-color:#787878"
         id="stop364" />
      <stop
         offset="1"
         style="stop-color:#000000"
         id="stop366" />
    </linearGradient>
    <linearGradient
       id="path324_1_"
       gradientUnits="userSpaceOnUse"
       x1="245.60741"
       y1="-201.1245"
       x2="236.6647"
       y2="-201.1245"
       gradientTransform="matrix(1.1643,0,0,-1.1643,-295.544,-204.3821)">
      <stop
         offset="0"
         style="stop-color:#696969"
         id="stop352" />
      <stop
         offset="0.0542"
         style="stop-color:#626262"
         id="stop354" />
      <stop
         offset="0.4772"
         style="stop-color:#373737"
         id="stop356" />
      <stop
         offset="0.8066"
         style="stop-color:#1C1C1C"
         id="stop358" />
      <stop
         offset="1"
         style="stop-color:#121212"
         id="stop360" />
    </linearGradient>
    <linearGradient
       id="path274_1_"
       gradientUnits="userSpaceOnUse"
       x1="-114.5137"
       y1="396.41409"
       x2="-114.5137"
       y2="397.27579"
       gradientTransform="matrix(-1.1643,0,0,1.1643,-77.81082,-461.4875)">
      <stop
         offset="0"
         style="stop-color:#FFFFFF"
         id="stop340" />
      <stop
         offset="0.5229"
         style="stop-color:#F9F9F9"
         id="stop342" />
      <stop
         offset="1"
         style="stop-color:#EEEEEE"
         id="stop344" />
    </linearGradient>
    <radialGradient
       id="XMLID_7_"
       cx="84.416"
       cy="75.584"
       r="6.5834999"
       gradientUnits="userSpaceOnUse">
      <stop
         offset="0"
         style="stop-color:#00316E"
         id="stop315" />
      <stop
         offset="0.0169"
         style="stop-color:#002D79"
         id="stop317" />
      <stop
         offset="0.108"
         style="stop-color:#001AB2"
         id="stop319" />
      <stop
         offset="0.1861"
         style="stop-color:#000CDC"
         id="stop321" />
      <stop
         offset="0.2473"
         style="stop-color:#0003F6"
         id="stop323" />
      <stop
         offset="0.284"
         style="stop-color:#0000FF"
         id="stop325" />
      <stop
         offset="0.3781"
         style="stop-color:#0003F5"
         id="stop327" />
      <stop
         offset="0.5395"
         style="stop-color:#000DD9"
         id="stop329" />
      <stop
         offset="0.7487"
         style="stop-color:#001CAD"
         id="stop331" />
      <stop
         offset="0.9954"
         style="stop-color:#00316F"
         id="stop333" />
      <stop
         offset="1"
         style="stop-color:#00316E"
         id="stop335" />
    </radialGradient>
    <radialGradient
       id="path258_1_"
       cx="292.14059"
       cy="-176.2471"
       r="2.7556"
       gradientTransform="matrix(1.1643,0,0,-1.1643,-241.8622,-169.1094)"
       gradientUnits="userSpaceOnUse">
      <stop
         offset="0"
         style="stop-color:#DDDDDD"
         id="stop301" />
      <stop
         offset="1"
         style="stop-color:#FFFFFF"
         id="stop303" />
    </radialGradient>
    <radialGradient
       id="path265_1_"
       cx="310.90329"
       cy="-176.24609"
       r="2.7549"
       gradientTransform="matrix(1.1643,0,0,-1.1643,-241.8622,-169.1094)"
       gradientUnits="userSpaceOnUse">
      <stop
         offset="0"
         style="stop-color:#DDDDDD"
         id="stop307" />
      <stop
         offset="1"
         style="stop-color:#FFFFFF"
         id="stop309" />
    </radialGradient>
    <radialGradient
       id="path249_1_"
       cx="301.52249"
       cy="-176.2852"
       r="16.1803"
       gradientTransform="matrix(1.1643,0,0,-1.1643,-295.544,-204.3821)"
       gradientUnits="userSpaceOnUse">
      <stop
         offset="0"
         style="stop-color:#FFFFFF"
         id="stop294" />
      <stop
         offset="0.6686"
         style="stop-color:#80B3FF"
         id="stop296" />
    </radialGradient>
    <linearGradient
       id="path242_3_"
       gradientUnits="userSpaceOnUse"
       x1="299.58109"
       y1="-170.3779"
       x2="302.58121"
       y2="-179.3782"
       gradientTransform="matrix(1.1643,0,0,-1.1643,-295.544,-204.3821)">
      <stop
         offset="0"
         style="stop-color:#FFFFFF"
         id="stop4571" />
      <stop
         offset="1"
         style="stop-color:#BBBBBB"
         id="stop4573" />
    </linearGradient>
    <linearGradient
       id="path242_1_"
       gradientUnits="userSpaceOnUse"
       x1="301.582"
       y1="-179.7827"
       x2="301.582"
       y2="-173.3958"
       gradientTransform="matrix(1.1643,0,0,-1.1643,-295.544,-204.3821)">
      <stop
         offset="0"
         style="stop-color:#FFFFFF"
         id="stop282" />
      <stop
         offset="1"
         style="stop-color:#A3A3A3"
         id="stop284" />
    </linearGradient>
    <radialGradient
       id="ellipse235_1_"
       cx="265.05371"
       cy="-163.06641"
       r="2.8250999"
       gradientTransform="matrix(1.1643,0,0,-1.1643,-241.8622,-169.1094)"
       gradientUnits="userSpaceOnUse">
      <stop
         offset="0"
         style="stop-color:#FFFFFF"
         id="stop276" />
      <stop
         offset="1"
         style="stop-color:#CFCFCF"
         id="stop278" />
    </radialGradient>
    <radialGradient
       id="path228_1_"
       cx="264.16309"
       cy="-164.3008"
       r="4.5762"
       gradientTransform="matrix(1.1643,0,0,-1.1643,-295.544,-204.3821)"
       gradientUnits="userSpaceOnUse">
      <stop
         offset="0"
         style="stop-color:#FFFFFF"
         id="stop269" />
      <stop
         offset="1"
         style="stop-color:#CFCFCF"
         id="stop271" />
    </radialGradient>
    <linearGradient
       id="XMLID_6_"
       gradientUnits="userSpaceOnUse"
       x1="67.413101"
       y1="17.999001"
       x2="67.413101"
       y2="23.2285"
       gradientTransform="matrix(1,0,0,0.8726,-53.68182,-31.94913)">
      <stop
         offset="0"
         style="stop-color:#FFFFFF"
         id="stop262" />
      <stop
         offset="1"
         style="stop-color:#888A85"
         id="stop264" />
    </linearGradient>
    <radialGradient
       id="ellipse221_1_"
       cx="276.0527"
       cy="-163.06641"
       r="2.8259001"
       gradientTransform="matrix(1.1643,0,0,-1.1643,-241.8622,-169.1094)"
       gradientUnits="userSpaceOnUse">
      <stop
         offset="0"
         style="stop-color:#FFFFFF"
         id="stop256" />
      <stop
         offset="1"
         style="stop-color:#CFCFCF"
         id="stop258" />
    </radialGradient>
    <radialGradient
       id="path214_1_"
       cx="275.16211"
       cy="-164.3008"
       r="4.5769"
       gradientTransform="matrix(1.1643,0,0,-1.1643,-295.544,-204.3821)"
       gradientUnits="userSpaceOnUse">
      <stop
         offset="0"
         style="stop-color:#FFFFFF"
         id="stop250" />
      <stop
         offset="1"
         style="stop-color:#CFCFCF"
         id="stop252" />
    </radialGradient>
    <linearGradient
       id="XMLID_5_"
       gradientUnits="userSpaceOnUse"
       x1="80.246101"
       y1="17.999001"
       x2="80.246101"
       y2="23.2285"
       gradientTransform="matrix(1,0,0,0.8726,-53.68182,-31.94913)">
      <stop
         offset="0"
         style="stop-color:#FFFFFF"
         id="stop243" />
      <stop
         offset="1"
         style="stop-color:#888A85"
         id="stop245" />
    </linearGradient>
    <radialGradient
       id="ellipse207_1_"
       cx="287.05371"
       cy="-163.06641"
       r="2.8250999"
       gradientTransform="matrix(1.1643,0,0,-1.1643,-241.8622,-169.1094)"
       gradientUnits="userSpaceOnUse">
      <stop
         offset="0"
         style="stop-color:#FFFFFF"
         id="stop237" />
      <stop
         offset="1"
         style="stop-color:#CFCFCF"
         id="stop239" />
    </radialGradient>
    <radialGradient
       id="path200_1_"
       cx="286.16309"
       cy="-164.3008"
       r="4.5762"
       gradientTransform="matrix(1.1643,0,0,-1.1643,-295.544,-204.3821)"
       gradientUnits="userSpaceOnUse">
      <stop
         offset="0"
         style="stop-color:#FFFFFF"
         id="stop231" />
      <stop
         offset="1"
         style="stop-color:#CFCFCF"
         id="stop233" />
    </radialGradient>
    <linearGradient
       id="XMLID_4_"
       gradientUnits="userSpaceOnUse"
       x1="93.079102"
       y1="17.999001"
       x2="93.079102"
       y2="23.2285"
       gradientTransform="matrix(1,0,0,0.8726,-53.68182,-31.94913)">
      <stop
         offset="0"
         style="stop-color:#FFFFFF"
         id="stop224" />
      <stop
         offset="1"
         style="stop-color:#888A85"
         id="stop226" />
    </linearGradient>
    <linearGradient
       id="ellipse193_1_"
       gradientUnits="userSpaceOnUse"
       x1="303.0947"
       y1="-162.6787"
       x2="299.44519"
       y2="-161.636"
       gradientTransform="matrix(1.1643,0,0,-1.1643,-241.8622,-169.1094)">
      <stop
         offset="0"
         style="stop-color:#888A85"
         id="stop218" />
      <stop
         offset="1"
         style="stop-color:#F2F2F2"
         id="stop220" />
    </linearGradient>
    <radialGradient
       id="ellipse186_1_"
       cx="297.6113"
       cy="-163.2012"
       r="9.4934998"
       gradientTransform="matrix(1.1643,0,0,-1.1643,-241.8622,-169.1094)"
       gradientUnits="userSpaceOnUse">
      <stop
         offset="0"
         style="stop-color:#FFFFFF"
         id="stop212" />
      <stop
         offset="1"
         style="stop-color:#A3A3A3"
         id="stop214" />
    </radialGradient>
    <linearGradient
       id="path179_1_"
       gradientUnits="userSpaceOnUse"
       x1="301.17191"
       y1="-161.14011"
       x2="301.17191"
       y2="-164.8763"
       gradientTransform="matrix(1.1643,0,0,-1.1643,-295.544,-204.3821)">
      <stop
         offset="0"
         style="stop-color:#FFFFFF"
         id="stop4530" />
      <stop
         offset="1"
         style="stop-color:#888A85"
         id="stop4532" />
    </linearGradient>
    <linearGradient
       id="path170_1_"
       gradientUnits="userSpaceOnUse"
       x1="262.27151"
       y1="-166.0864"
       x2="262.27151"
       y2="-160.56351"
       gradientTransform="matrix(1.1643,0,0,-1.1643,-295.544,-204.3821)">
      <stop
         offset="0"
         style="stop-color:#FFFFFF"
         id="stop196" />
      <stop
         offset="0.4912"
         style="stop-color:#D7D7D7"
         id="stop198" />
      <stop
         offset="0.8791"
         style="stop-color:#E1E1E1"
         id="stop200" />
      <stop
         offset="1"
         style="stop-color:#E6E6E6"
         id="stop4527" />
    </linearGradient>
    <radialGradient
       id="path159_1_"
       cx="222.33299"
       cy="-170.36771"
       r="6.1823001"
       gradientTransform="matrix(1.1643,0,0,-1.1643,-295.544,-204.3821)"
       gradientUnits="userSpaceOnUse">
      <stop
         offset="0"
         style="stop-color:#FFFFFF"
         id="stop4514" />
      <stop
         offset="0.2609"
         style="stop-color:#FCFCFC"
         id="stop4516" />
      <stop
         offset="0.4736"
         style="stop-color:#F2F2F2"
         id="stop4518" />
      <stop
         offset="0.6693"
         style="stop-color:#E1E1E1"
         id="stop188" />
      <stop
         offset="0.8538"
         style="stop-color:#C9C9C9"
         id="stop190" />
      <stop
         offset="1"
         style="stop-color:#EEEEEC"
         id="stop192" />
    </radialGradient>
    <radialGradient
       id="ellipse144_1_"
       cx="262.19339"
       cy="-170.4893"
       r="16.744101"
       gradientTransform="matrix(0.9703,0,0,-1.1643,-237.9304,-169.1094)"
       gradientUnits="userSpaceOnUse">
      <stop
         offset="0"
         style="stop-color:#555753"
         id="stop176" />
      <stop
         offset="1"
         style="stop-color:#BABDB6"
         id="stop178" />
    </radialGradient>
    <radialGradient
       id="path137_1_"
       cx="219.52831"
       cy="-178.35789"
       r="15.7823"
       gradientTransform="matrix(1.1922,0,0,-1.1643,-295.9089,-204.3821)"
       gradientUnits="userSpaceOnUse">
      <stop
         offset="0"
         style="stop-color:#FFFFFF"
         id="stop170" />
      <stop
         offset="1"
         style="stop-color:#CFCFCF"
         id="stop172" />
    </radialGradient>
    <radialGradient
       id="path130_1_"
       cx="218.9131"
       cy="-178.6611"
       r="9.8403997"
       gradientTransform="matrix(1.1922,0,0,-1.1643,-295.9089,-204.3821)"
       gradientUnits="userSpaceOnUse">
      <stop
         offset="0"
         style="stop-color:#FFFFFF"
         id="stop164" />
      <stop
         offset="1"
         style="stop-color:#CFCFCF"
         id="stop166" />
    </radialGradient>
    <linearGradient
       id="XMLID_3_"
       gradientUnits="userSpaceOnUse"
       x1="70.516602"
       y1="75.635696"
       x2="97.562103"
       y2="75.635696"
       gradientTransform="translate(-53.68182,-35.27273)">
      <stop
         offset="0"
         style="stop-color:#1C1C1C"
         id="stop155" />
      <stop
         offset="0.5"
         style="stop-color:#555753"
         id="stop157" />
      <stop
         offset="1"
         style="stop-color:#1C1C1C"
         id="stop159" />
    </linearGradient>
    <linearGradient
       id="path123_1_"
       gradientUnits="userSpaceOnUse"
       x1="280.27249"
       y1="-223.70799"
       x2="280.27249"
       y2="-196.7085"
       gradientTransform="matrix(1.1643,0,0,-1.1643,-295.544,-204.3821)">
      <stop
         offset="0"
         style="stop-color:#E8E8E8"
         id="stop147" />
      <stop
         offset="0.5"
         style="stop-color:#9E9E9E"
         id="stop149" />
      <stop
         offset="1"
         style="stop-color:#E8E8E8"
         id="stop151" />
    </linearGradient>
    <linearGradient
       id="path116_1_"
       gradientUnits="userSpaceOnUse"
       x1="265.27249"
       y1="-210.20799"
       x2="295.27249"
       y2="-210.20799"
       gradientTransform="matrix(1.1643,0,0,-1.1643,-295.544,-204.3821)">
      <stop
         offset="0"
         style="stop-color:#FFFFFF"
         id="stop141" />
      <stop
         offset="1"
         style="stop-color:#EEEEEC"
         id="stop143" />
    </linearGradient>
    <radialGradient
       id="path109_1_"
       cx="277.27151"
       cy="-195.709"
       r="12.1655"
       gradientTransform="matrix(1.1643,0,0,-1.1643,-295.544,-204.3821)"
       gradientUnits="userSpaceOnUse">
      <stop
         offset="0"
         style="stop-color:#888888"
         id="stop135" />
      <stop
         offset="1"
         style="stop-color:#888888"
         id="stop137" />
    </radialGradient>
    <radialGradient
       id="path102_1_"
       cx="274.86819"
       cy="-187.4736"
       r="38.6712"
       gradientTransform="matrix(1.1643,0,0,-1.1643,-295.544,-204.3821)"
       gradientUnits="userSpaceOnUse">
      <stop
         offset="0"
         style="stop-color:#FFFFFF"
         id="stop4476" />
      <stop
         offset="0.0886"
         style="stop-color:#EBEBEB"
         id="stop4478" />
      <stop
         offset="0.2702"
         style="stop-color:#B7B7B7"
         id="stop4480" />
      <stop
         offset="0.5266"
         style="stop-color:#656565"
         id="stop4482" />
      <stop
         offset="0.574"
         style="stop-color:#555555"
         id="stop121" />
      <stop
         offset="0.6124"
         style="stop-color:#676767"
         id="stop123" />
      <stop
         offset="0.7014"
         style="stop-color:#8B8B8B"
         id="stop125" />
      <stop
         offset="0.7846"
         style="stop-color:#A6A6A6"
         id="stop127" />
      <stop
         offset="0.859"
         style="stop-color:#B5B5B5"
         id="stop129" />
      <stop
         offset="0.9172"
         style="stop-color:#BBBBBB"
         id="stop131" />
    </radialGradient>
    <radialGradient
       id="path95_1_"
       cx="274.27249"
       cy="-190.7085"
       r="30.462601"
       gradientTransform="matrix(1.1643,0,0,-1.1643,-295.544,-204.3821)"
       gradientUnits="userSpaceOnUse">
      <stop
         offset="0"
         style="stop-color:#BBBBBB"
         id="stop4471" />
      <stop
         offset="1"
         style="stop-color:#555555"
         id="stop4473" />
    </radialGradient>
    <radialGradient
       id="ellipse81_1_"
       cx="277.4834"
       cy="-170.3638"
       r="12.3761"
       gradientTransform="matrix(1.1643,0,0,-1.1643,-241.8622,-169.1094)"
       gradientUnits="userSpaceOnUse">
      <stop
         offset="0"
         style="stop-color:#FFFFFF"
         id="stop95" />
      <stop
         offset="1"
         style="stop-color:#A3A3A3"
         id="stop97" />
    </radialGradient>
    <radialGradient
       xlink:href="#linearGradient2354"
       id="path88_1_"
       cx="279.9072"
       cy="-178.6777"
       r="8.0838003"
       gradientTransform="matrix(1.1643,0,0,-1.1643,-241.8622,-169.1094)"
       gradientUnits="userSpaceOnUse">
      <stop
         offset="0"
         style="stop-color:black;stop-opacity:1;"
         id="stop4463" />
      <stop
         offset="1"
         style="stop-color:#555753"
         id="stop4465" />
    </radialGradient>
    <radialGradient
       id="ellipse74_1_"
       cx="263.27341"
       cy="-183.7085"
       r="4.1212001"
       gradientTransform="matrix(1.1643,0,0,-1.1643,-241.8622,-169.1094)"
       gradientUnits="userSpaceOnUse">
      <stop
         offset="0"
         style="stop-color:#2E3436"
         id="stop87" />
      <stop
         offset="1"
         style="stop-color:#555753"
         id="stop89" />
    </radialGradient>
    <radialGradient
       id="ellipse67_1_"
       cx="262.50391"
       cy="-180.0166"
       r="5.4976001"
       gradientTransform="matrix(1.1643,0,0,-1.1643,-241.8622,-169.1094)"
       gradientUnits="userSpaceOnUse">
      <stop
         offset="0.2485"
         style="stop-color:#FFFFFF"
         id="stop81" />
      <stop
         offset="1"
         style="stop-color:#A3A3A3"
         id="stop83" />
    </radialGradient>
    <radialGradient
       id="ellipse60_1_"
       cx="275.27051"
       cy="-188.5688"
       r="35.736198"
       gradientTransform="matrix(1.1643,0,0,-1.1643,-241.8622,-169.1094)"
       gradientUnits="userSpaceOnUse">
      <stop
         offset="0"
         style="stop-color:#FFFFFF"
         id="stop73" />
      <stop
         offset="0.5621"
         style="stop-color:#888888"
         id="stop75" />
      <stop
         offset="1"
         style="stop-color:#BBBBBB"
         id="stop77" />
    </radialGradient>
    <radialGradient
       id="path53_1_"
       cx="273.27151"
       cy="-187.5679"
       r="40.311298"
       gradientTransform="matrix(1.1643,0,0,-1.1643,-295.544,-204.3821)"
       gradientUnits="userSpaceOnUse">
      <stop
         offset="0"
         style="stop-color:#888A85"
         id="stop67" />
      <stop
         offset="1"
         style="stop-color:#8F8F8F"
         id="stop69" />
    </radialGradient>
    <linearGradient
       id="XMLID_2_"
       gradientUnits="userSpaceOnUse"
       x1="60.575699"
       y1="87.672897"
       x2="108.4979"
       y2="54.117401"
       gradientTransform="matrix(-0.7071,0.7071,-0.7071,-0.7071,140.6814,25.89567)">
      <stop
         offset="0"
         style="stop-color:#888A85"
         id="stop58" />
      <stop
         offset="0.497"
         style="stop-color:#EEEEEE"
         id="stop60" />
      <stop
         offset="1"
         style="stop-color:#8F8F8F"
         id="stop62" />
    </linearGradient>
    <linearGradient
       id="XMLID_1_"
       gradientUnits="userSpaceOnUse"
       x1="63.848099"
       y1="50.204102"
       x2="105.0704"
       y2="91.426399"
       gradientTransform="translate(-53.68182,-35.27273)">
      <stop
         offset="0"
         style="stop-color:#888A85"
         id="stop51" />
      <stop
         offset="1"
         style="stop-color:#FFFFFF"
         id="stop53" />
    </linearGradient>
    <radialGradient
       id="path46_1_"
       cx="309.9346"
       cy="-230.4839"
       r="97.675201"
       gradientTransform="matrix(1.1643,0,0,-1.1643,-295.544,-204.3821)"
       gradientUnits="userSpaceOnUse">
      <stop
         offset="0"
         style="stop-color:#E8E8E8"
         id="stop41" />
      <stop
         offset="0.2145"
         style="stop-color:#DFDFDF"
         id="stop43" />
      <stop
         offset="0.5725"
         style="stop-color:#C5C5C5"
         id="stop45" />
      <stop
         offset="1"
         style="stop-color:#9E9E9E"
         id="stop47" />
    </radialGradient>
    <linearGradient
       id="path35_1_"
       gradientUnits="userSpaceOnUse"
       x1="211.27251"
       y1="-203.2856"
       x2="280.27191"
       y2="-203.2856"
       gradientTransform="matrix(1.1643,0,0,-1.1643,-295.544,-204.3821)">
      <stop
         offset="0"
         style="stop-color:#DEDEDE"
         id="stop21" />
      <stop
         offset="0.0858"
         style="stop-color:#D4D4D4"
         id="stop23" />
      <stop
         offset="0.2291"
         style="stop-color:#BBBBBB"
         id="stop25" />
      <stop
         offset="0.4111"
         style="stop-color:#919191"
         id="stop27" />
      <stop
         offset="0.4607"
         style="stop-color:#858585"
         id="stop29" />
      <stop
         offset="0.5942"
         style="stop-color:#A2A2A2"
         id="stop31" />
      <stop
         offset="0.7562"
         style="stop-color:#BEBEBE"
         id="stop33" />
      <stop
         offset="0.897"
         style="stop-color:#D0D0D0"
         id="stop35" />
      <stop
         offset="1"
         style="stop-color:#D6D6D6"
         id="stop37" />
    </linearGradient>
    <linearGradient
       id="path14_1_"
       gradientUnits="userSpaceOnUse"
       x1="255.2764"
       y1="-155.9102"
       x2="267.62149"
       y2="-228.0827"
       gradientTransform="matrix(1.1643,0,0,-1.1643,-295.544,-204.3821)">
      <stop
         offset="0"
         style="stop-color:#F2F2F2"
         id="stop13" />
      <stop
         offset="0.4228"
         style="stop-color:#D4D4D4"
         id="stop15" />
      <stop
         offset="1"
         style="stop-color:#A6A6A6"
         id="stop17" />
    </linearGradient>
    <radialGradient
       r="4.9659114"
       fy="122.4772"
       fx="33.78273"
       cy="121.95814"
       cx="36.747746"
       gradientTransform="matrix(1,0,0,0.316667,0,83.33806)"
       gradientUnits="userSpaceOnUse"
       id="radialGradient2572"
       xlink:href="#linearGradient2664" />
    <radialGradient
       r="4.9659114"
       fy="122.4772"
       fx="33.78273"
       cy="121.95814"
       cx="36.747746"
       gradientTransform="matrix(1,0,0,0.316667,0,83.33806)"
       gradientUnits="userSpaceOnUse"
       id="radialGradient2574"
       xlink:href="#linearGradient2664" />
    <linearGradient
       y2="86.916698"
       x2="48.092775"
       y1="86.916698"
       x1="38.357395"
       gradientTransform="matrix(0.42,0,0,0.243471,46.16647,89.58039)"
       gradientUnits="userSpaceOnUse"
       id="linearGradient2576"
       xlink:href="#linearGradient2285" />
    <linearGradient
       y2="79.413818"
       x2="44.111984"
       y1="79.413818"
       x1="41.109016"
       spreadMethod="reflect"
       gradientTransform="matrix(1.17687,0,0,0.651123,16.90569,67.68247)"
       gradientUnits="userSpaceOnUse"
       id="linearGradient2578"
       xlink:href="#linearGradient2301" />
    <linearGradient
       y2="86.916698"
       x2="48.092775"
       y1="86.916698"
       x1="38.357395"
       gradientTransform="matrix(0.42,0,0,0.42,-74.77859,87.80614)"
       gradientUnits="userSpaceOnUse"
       id="linearGradient2580"
       xlink:href="#linearGradient2285" />
    <linearGradient
       y2="79.413818"
       x2="44.111984"
       y1="79.413818"
       x1="41.109016"
       spreadMethod="reflect"
       gradientTransform="matrix(1.17687,0,0,1.123223,-104.0394,50.03107)"
       gradientUnits="userSpaceOnUse"
       id="linearGradient2582"
       xlink:href="#linearGradient2301" />
    <linearGradient
       y2="86.916698"
       x2="48.092775"
       y1="86.916698"
       x1="38.357395"
       gradientTransform="matrix(0.42,0,0,0.42,-139.0782,-23.58163)"
       gradientUnits="userSpaceOnUse"
       id="linearGradient2584"
       xlink:href="#linearGradient2285" />
    <linearGradient
       y2="79.413818"
       x2="44.111984"
       y1="79.413818"
       x1="41.109016"
       spreadMethod="reflect"
       gradientTransform="matrix(1.17687,0,0,1.123223,-168.339,-61.3567)"
       gradientUnits="userSpaceOnUse"
       id="linearGradient2586"
       xlink:href="#linearGradient2301" />
    <linearGradient
       y2="106.68057"
       x2="65.09919"
       y1="122.79063"
       x1="65.788818"
       gradientTransform="translate(-0.572807,-0.745747)"
       gradientUnits="userSpaceOnUse"
       id="linearGradient2588"
       xlink:href="#linearGradient2354" />
    <radialGradient
       r="45"
       fy="80.973824"
       fx="-10.101027"
       cy="80.973824"
       cx="-10.101027"
       gradientTransform="matrix(4.712709,-9.938109e-2,9.613262e-2,5.78635,104.6613,-265.1142)"
       gradientUnits="userSpaceOnUse"
       id="radialGradient2590"
       xlink:href="#linearGradient3075" />
    <linearGradient
       y2="16.715311"
       x2="27.663315"
       y1="13.248468"
       x1="27.663315"
       gradientTransform="translate(1.024567,0.512284)"
       gradientUnits="userSpaceOnUse"
       id="linearGradient2592"
       xlink:href="#linearGradient2612" />
    <linearGradient
       y2="15.646066"
       x2="67.84771"
       y1="5.7671132"
       x1="67.84771"
       gradientTransform="translate(1.024567,0.512284)"
       gradientUnits="userSpaceOnUse"
       id="linearGradient2594"
       xlink:href="#linearGradient2566" />
    <linearGradient
       y2="15.646066"
       x2="67.84771"
       y1="5.7671132"
       x1="67.84771"
       gradientTransform="matrix(1,0,0,0.106463,1.024567,6.200674)"
       gradientUnits="userSpaceOnUse"
       id="linearGradient2596"
       xlink:href="#linearGradient3075" />
    <radialGradient
       r="3.7244337"
       fy="122.04091"
       fx="64.63961"
       cy="122.04091"
       cx="64.63961"
       gradientTransform="matrix(1,0,0,0.844444,0,18.98414)"
       gradientUnits="userSpaceOnUse"
       id="radialGradient2598"
       xlink:href="#linearGradient2678" />
    <linearGradient
       y2="15.646066"
       x2="67.84771"
       y1="5.7671132"
       x1="67.84771"
       gradientTransform="matrix(1,0,0,3.347064e-2,1.024567,11.62163)"
       gradientUnits="userSpaceOnUse"
       id="linearGradient2600"
       xlink:href="#linearGradient2664" />
    <linearGradient
       y2="15.646066"
       x2="67.84771"
       y1="5.7671132"
       x1="67.84771"
       gradientTransform="matrix(0.835975,0,0,0.02798062,10.790215,15.264514)"
       gradientUnits="userSpaceOnUse"
       id="linearGradient2603"
       xlink:href="#linearGradient2664" />
    <linearGradient
       y2="15.646066"
       x2="67.84771"
       y1="5.7671132"
       x1="67.84771"
       gradientTransform="matrix(0.835975,0,0,0.08900041,10.790215,10.73273)"
       gradientUnits="userSpaceOnUse"
       id="linearGradient2607"
       xlink:href="#linearGradient3075" />
    <linearGradient
       y2="15.646066"
       x2="67.84771"
       y1="5.7671132"
       x1="67.84771"
       gradientTransform="matrix(0.835975,0,0,0.835975,10.790215,5.9773787)"
       gradientUnits="userSpaceOnUse"
       id="linearGradient2610"
       xlink:href="#linearGradient2566" />
    <linearGradient
       y2="16.715311"
       x2="27.663315"
       y1="13.248468"
       x1="27.663315"
       gradientTransform="matrix(0.835975,0,0,0.835975,10.790215,5.9773787)"
       gradientUnits="userSpaceOnUse"
       id="linearGradient2613"
       xlink:href="#linearGradient2612" />
    <radialGradient
       r="45"
       fy="80.973824"
       fx="-10.101027"
       cy="80.973824"
       cx="-10.101027"
       gradientTransform="matrix(3.939707,-0.08308011,0.08036447,4.837244,97.42793,-216.07972)"
       gradientUnits="userSpaceOnUse"
       id="radialGradient2616"
       xlink:href="#linearGradient3075" />
    <linearGradient
       y2="106.68057"
       x2="65.09919"
       y1="122.79063"
       x1="65.788818"
       gradientTransform="matrix(0.835975,0,0,0.835975,9.454851,11.925696)"
       gradientUnits="userSpaceOnUse"
       id="linearGradient2620"
       xlink:href="#linearGradient2354" />
    <linearGradient
       y2="79.413818"
       x2="44.111984"
       y1="79.413818"
       x1="41.109016"
       spreadMethod="reflect"
       gradientTransform="matrix(0.98383415,0,0,0.93898614,-156.56175,-53.620936)"
       gradientUnits="userSpaceOnUse"
       id="linearGradient2623"
       xlink:href="#linearGradient2301" />
    <linearGradient
       y2="86.916698"
       x2="48.092775"
       y1="86.916698"
       x1="38.357395"
       gradientTransform="matrix(0.35110905,0,0,0.35110905,-132.10044,-22.041921)"
       gradientUnits="userSpaceOnUse"
       id="linearGradient2627"
       xlink:href="#linearGradient2285" />
    <linearGradient
       y2="79.413818"
       x2="44.111984"
       y1="79.413818"
       x1="41.109016"
       spreadMethod="reflect"
       gradientTransform="matrix(0.98383415,0,0,0.93898614,-92.875306,56.70213)"
       gradientUnits="userSpaceOnUse"
       id="linearGradient2630"
       xlink:href="#linearGradient2301" />
    <linearGradient
       y2="86.916698"
       x2="48.092775"
       y1="86.916698"
       x1="38.357395"
       gradientTransform="matrix(0.35110905,0,0,0.35110905,-68.413992,88.281134)"
       gradientUnits="userSpaceOnUse"
       id="linearGradient2634"
       xlink:href="#linearGradient2285" />
    <linearGradient
       y2="79.413818"
       x2="44.111984"
       y1="79.413818"
       x1="41.109016"
       spreadMethod="reflect"
       gradientTransform="matrix(0.983834,0,0,0.544323,24.06644,69.12997)"
       gradientUnits="userSpaceOnUse"
       id="linearGradient2637"
       xlink:href="#linearGradient2301" />
    <linearGradient
       y2="86.916698"
       x2="48.092775"
       y1="86.916698"
       x1="38.357395"
       gradientTransform="matrix(0.35111,0,0,0.203536,48.52772,80.43609)"
       gradientUnits="userSpaceOnUse"
       id="linearGradient2641"
       xlink:href="#linearGradient2285" />
    <radialGradient
       r="3.7244337"
       fy="122.04091"
       fx="64.63961"
       cy="122.04091"
       cx="64.63961"
       gradientTransform="matrix(0.966016,0,0,0.70593407,1.0436,28.419388)"
       gradientUnits="userSpaceOnUse"
       id="radialGradient2646"
       xlink:href="#linearGradient2678" />
    <radialGradient
       r="4.9659114"
       fy="122.4772"
       fx="33.78273"
       cy="121.95814"
       cx="36.747746"
       gradientTransform="matrix(1.9659711,0,0,0.42361469,-169.62871,45.07652)"
       gradientUnits="userSpaceOnUse"
       id="radialGradient2648"
       xlink:href="#linearGradient2664" />
    <radialGradient
       r="4.9659114"
       fy="122.4772"
       fx="33.78273"
       cy="121.95814"
       cx="36.747746"
       gradientTransform="matrix(1.9659711,0,0,0.42361469,-43.27561,68.540567)"
       gradientUnits="userSpaceOnUse"
       id="radialGradient2650"
       xlink:href="#linearGradient2664" />
    <linearGradient
       id="linearGradient3757">
      <stop
         id="stop3759"
         offset="0"
         style="stop-color:#000000;stop-opacity:1;" />
      <stop
         style="stop-color:#000000;stop-opacity:1;"
         offset="0"
         id="stop3761" />
      <stop
         style="stop-color:#000000;stop-opacity:0.58823532;"
         offset="0.56999999"
         id="stop3763" />
      <stop
         id="stop3765"
         offset="0.74199998"
         style="stop-color:#3b3b3b;stop-opacity:0.72000003;" />
      <stop
         id="stop3767"
         offset="1"
         style="stop-color:white;stop-opacity:0;" />
    </linearGradient>
    <linearGradient
       id="linearGradient3716">
      <stop
         id="stop3718"
         offset="0"
         style="stop-color:#fefefe;stop-opacity:1" />
      <stop
         style="stop-color:#e9eaea;stop-opacity:1"
         offset="0.23920465"
         id="stop3732" />
      <stop
         id="stop3720"
         offset="1"
         style="stop-color:#fdfdfd;stop-opacity:1" />
    </linearGradient>
  </defs>
  <metadata
     id="metadata1312">
    <rdf:RDF>
      <cc:Work
         rdf:about="">
        <dc:format>image/svg+xml</dc:format>
        <dc:type
           rdf:resource="http://purl.org/dc/dcmitype/StillImage" />
        <cc:license
           rdf:resource="http://creativecommons.org/licenses/GPL/2.0/" />
        <dc:contributor>
          <cc:Agent>
            <dc:title>Oxygen team</dc:title>
          </cc:Agent>
        </dc:contributor>
        <dc:title></dc:title>
      </cc:Work>
      <cc:License
         rdf:about="http://creativecommons.org/licenses/LGPL/2.1/">
        <cc:permits
           rdf:resource="http://web.resource.org/cc/Reproduction" />
        <cc:permits
           rdf:resource="http://web.resource.org/cc/Distribution" />
        <cc:requires
           rdf:resource="http://web.resource.org/cc/Notice" />
        <cc:permits
           rdf:resource="http://web.resource.org/cc/DerivativeWorks" />
        <cc:requires
           rdf:resource="http://web.resource.org/cc/ShareAlike" />
        <cc:requires
           rdf:resource="http://web.resource.org/cc/SourceCode" />
      </cc:License>
    </rdf:RDF>
  </metadata>
  <g
     id="layer1">
    <g
       id="g3927">
      <rect
         style="opacity:0.57786889;fill:#ffffff;fill-opacity:1;fill-rule:nonzero;stroke:none;stroke-width:3.63199997;stroke-linecap:round;stroke-linejoin:round;stroke-miterlimit:4;stroke-dasharray:none;stroke-dashoffset:4;stroke-opacity:1"
         id="rect1327"
         width="1"
         height="0"
         x="56.025921"
         y="-10.933" />
      <rect
         style="opacity:0.57786889;fill:white;fill-opacity:1;fill-rule:nonzero;stroke:none;stroke-width:3.63199997;stroke-linecap:round;stroke-linejoin:round;stroke-miterlimit:4;stroke-dasharray:none;stroke-dashoffset:4;stroke-opacity:1"
         id="rect2720"
         width="1"
         height="0"
         x="117.4722"
         y="-34.2202" />
      <g
         style="opacity:0.40163933"
         transform="matrix(-0.782995,0,0,0.650879,-2364.324,579.0814)"
         id="g4640" />
      <g
         id="g4646"
         transform="matrix(-0.782995,0,0,0.650879,-2364.324,579.0814)"
         style="opacity:0.40163933" />
      <g
         id="g4730"
         transform="matrix(1,0,0,0.650879,836.6392,586.4092)"
         style="opacity:0.40163933" />
      <g
         style="opacity:0.40163933"
         transform="matrix(1,0,0,0.650879,836.6392,586.4092)"
         id="g4748" />
      <path
         id="path2276"
         d="m 62.650159,11.159976 0,-2.7947088 0,2.7947088 z"
         style="fill:#ffffff;fill-opacity:0.75688076;fill-rule:nonzero;stroke:none;stroke-width:0.5;stroke-linecap:round;stroke-linejoin:round;stroke-miterlimit:4;stroke-dasharray:none;stroke-dashoffset:4;stroke-opacity:1" />
      <ellipse
         ry="2.1036308"
         rx="9.7628384"
         cy="120.20377"
         cx="28.969397"
         style="opacity:0.49590167;fill:url(#radialGradient2650);fill-opacity:1;fill-rule:nonzero;stroke:none;stroke-width:0.71249998;stroke-linecap:square;stroke-linejoin:miter;stroke-miterlimit:4;stroke-dasharray:none;stroke-dashoffset:4;stroke-opacity:1"
         id="path2662"
         transform="matrix(0.98355209,-0.18062473,0.1385841,0.99035067,0,0)" />
      <ellipse
         ry="2.1036308"
         rx="9.7628384"
         cy="96.739723"
         cx="-97.383705"
         transform="matrix(-0.98355209,-0.18062473,-0.1385841,0.99035067,0,0)"
         id="path2672"
         style="opacity:0.49590167;fill:url(#radialGradient2648);fill-opacity:1;fill-rule:nonzero;stroke:none;stroke-width:0.71249998;stroke-linecap:square;stroke-linejoin:miter;stroke-miterlimit:4;stroke-dasharray:none;stroke-dashoffset:4;stroke-opacity:1" />
      <path
         style="fill:#818181;fill-opacity:1;fill-rule:nonzero;stroke:#000000;stroke-width:1.67194951;stroke-linecap:round;stroke-linejoin:round;stroke-miterlimit:4;stroke-dasharray:none;stroke-dashoffset:4;stroke-opacity:0.19512191"
         d="m 12.992437,16.602738 0,71.383226 102.295573,0 0,-71.383226 -102.295573,0 z"
         id="path1446" />
      <rect
         rx="0.42543164"
         style="fill:url(#linearGradient2641);fill-opacity:1;fill-rule:nonzero;stroke:none;stroke-width:0.71249998;stroke-linecap:square;stroke-linejoin:miter;stroke-miterlimit:4;stroke-dasharray:none;stroke-dashoffset:4;stroke-opacity:1"
         id="rect2332"
         width="3.4181867"
         height="98.100456"
         x="61.995346"
         y="7.8729014"
         ry="0.42543164" />
      <rect
         style="fill:#000000;fill-opacity:1;fill-rule:nonzero;stroke:none;stroke-width:0.71249998;stroke-linecap:square;stroke-linejoin:miter;stroke-miterlimit:4;stroke-dasharray:none;stroke-dashoffset:4;stroke-opacity:1"
         id="rect2334"
         width="5.208662"
         height="5.715661"
         x="61.100109"
         y="108.73727"
         ry="1.7523692"
         rx="1.752369" />
      <rect
         style="opacity:0.47950816;fill:url(#linearGradient2637);fill-opacity:1;fill-rule:nonzero;stroke:none;stroke-width:0.71249998;stroke-linecap:square;stroke-linejoin:miter;stroke-miterlimit:4;stroke-dasharray:none;stroke-dashoffset:4;stroke-opacity:1"
         id="rect2336"
         width="4.4798932"
         height="5.0043387"
         x="61.429348"
         y="109.13122"
         rx="1.2257731"
         ry="1.1947973" />
      <rect
         style="fill:url(#linearGradient2634);fill-opacity:1;fill-rule:nonzero;stroke:none;stroke-width:0.71249998;stroke-linecap:square;stroke-linejoin:miter;stroke-miterlimit:4;stroke-dasharray:none;stroke-dashoffset:4;stroke-opacity:1"
         id="rect1410"
         width="3.4181824"
         height="27.072002"
         x="-54.946384"
         y="105.26241"
         transform="matrix(0.50000092,-0.86602487,0.86602487,0.50000092,0,0)" />
      <rect
         style="fill:#000000;fill-opacity:1;fill-rule:nonzero;stroke:none;stroke-width:0.71249998;stroke-linecap:square;stroke-linejoin:miter;stroke-miterlimit:4;stroke-dasharray:none;stroke-dashoffset:4;stroke-opacity:1"
         id="rect2297"
         width="5.2086601"
         height="7.1619072"
         x="-55.841621"
         y="127.72475"
         ry="1.7523698"
         rx="1.7523698"
         transform="matrix(0.50000092,-0.86602487,0.86602487,0.50000092,0,0)" />
      <rect
         style="opacity:0.47950816;fill:url(#linearGradient2630);fill-opacity:1;fill-rule:nonzero;stroke:none;stroke-width:0.71249998;stroke-linecap:square;stroke-linejoin:miter;stroke-miterlimit:4;stroke-dasharray:none;stroke-dashoffset:4;stroke-opacity:1"
         id="rect2299"
         width="4.4798913"
         height="6.1371927"
         x="-55.512383"
         y="128.20197"
         rx="1.2257743"
         ry="1.194798"
         transform="matrix(0.50000092,-0.86602487,0.86602487,0.50000092,0,0)" />
      <rect
         y="-5.0606523"
         x="-118.63297"
         height="27.072002"
         width="3.4181824"
         id="rect2316"
         style="fill:url(#linearGradient2627);fill-opacity:1;fill-rule:nonzero;stroke:none;stroke-width:0.71249998;stroke-linecap:square;stroke-linejoin:miter;stroke-miterlimit:4;stroke-dasharray:none;stroke-dashoffset:4;stroke-opacity:1"
         transform="matrix(-0.50000092,-0.86602487,-0.86602487,0.50000092,0,0)" />
      <rect
         rx="1.7523698"
         ry="1.7523698"
         y="17.401699"
         x="-119.52825"
         height="7.1619072"
         width="5.2086601"
         id="rect2318"
         style="fill:#000000;fill-opacity:1;fill-rule:nonzero;stroke:none;stroke-width:0.71249998;stroke-linecap:square;stroke-linejoin:miter;stroke-miterlimit:4;stroke-dasharray:none;stroke-dashoffset:4;stroke-opacity:1"
         transform="matrix(-0.50000092,-0.86602487,-0.86602487,0.50000092,0,0)" />
      <rect
         ry="1.194798"
         rx="1.2257743"
         y="17.878918"
         x="-119.19901"
         height="6.1371927"
         width="4.4798913"
         id="rect2320"
         style="opacity:0.47950816;fill:url(#linearGradient2623);fill-opacity:1;fill-rule:nonzero;stroke:none;stroke-width:0.71249998;stroke-linecap:square;stroke-linejoin:miter;stroke-miterlimit:4;stroke-dasharray:none;stroke-dashoffset:4;stroke-opacity:1"
         transform="matrix(-0.50000092,-0.86602487,-0.86602487,0.50000092,0,0)" />
      <path
         style="opacity:0.77459011;fill:url(#linearGradient2620);fill-opacity:1;fill-rule:nonzero;stroke:none;stroke-width:0.71249998;stroke-linecap:square;stroke-linejoin:miter;stroke-miterlimit:4;stroke-dasharray:none;stroke-dashoffset:4;stroke-opacity:1"
         d="m 62.905002,101.11378 c -0.04249,0.0109 -0.09004,0.033 -0.130621,0.0523 -0.417637,0.2175 -0.731478,0.87025 -0.731478,1.64582 l 0,6.40043 c -0.09841,0.0432 -0.208587,0.11311 -0.287366,0.18287 -0.01185,0.011 -0.04095,0.0407 -0.05225,0.0523 -0.01101,0.0118 -0.04182,0.0399 -0.05225,0.0523 -0.01519,0.0189 -0.03846,0.0584 -0.05225,0.0784 -0.02217,0.0338 -0.06043,0.0942 -0.07837,0.13062 -0.02388,0.0516 -0.03755,0.12694 -0.05225,0.18287 -0.01711,0.0726 -0.02612,0.15731 -0.02612,0.23512 l 0,3.00429 c 0,0.11239 0.01744,0.23894 0.05225,0.33961 0.01433,0.0383 0.03343,0.0947 0.05225,0.13062 0.06295,0.11324 0.160102,0.2322 0.261242,0.31349 0.06448,0.0493 0.15942,0.0974 0.235118,0.13062 0.122678,0.0504 0.276064,0.0784 0.417988,0.0784 l 0.182869,0 c 0.03785,0.0287 0.09046,0.0574 0.130621,0.0784 0.08928,0.0424 0.189795,0.0784 0.287367,0.0784 l 1.201714,0 c 0.150793,0 0.289302,-0.0592 0.417987,-0.15674 l 0.208994,0 c 0.09757,0 0.198092,-0.002 0.287366,-0.0261 0.104409,-0.0315 0.226476,-0.0965 0.313491,-0.15674 0.03943,-0.0287 0.09589,-0.0707 0.130621,-0.1045 0.03389,-0.0346 0.07598,-0.0915 0.104497,-0.13062 0.04595,-0.0664 0.101969,-0.15856 0.130621,-0.23512 0.03481,-0.10067 0.05225,-0.22722 0.05225,-0.33961 l 0,-3.00429 c 0,-0.0778 -0.009,-0.1625 -0.02612,-0.23512 -0.05249,-0.19976 -0.184816,-0.39186 -0.339615,-0.52248 -0.01264,-0.0102 -0.0391,-0.0427 -0.05225,-0.0523 -0.06024,-0.0417 -0.139987,-0.0761 -0.208994,-0.1045 l 0,-6.40043 c 0,-0.73082 -0.27275,-1.34227 -0.653105,-1.59358 -0.109966,-0.0674 -0.241556,-0.10449 -0.365739,-0.10449 l -1.201714,0 c -0.05322,0 -0.105755,-0.013 -0.156746,0 z"
         id="rect2342" />
      <path
         style="fill:#ffffff;fill-opacity:1;fill-rule:nonzero;stroke:none;stroke-width:3.63199997;stroke-linecap:round;stroke-linejoin:round;stroke-miterlimit:4;stroke-dasharray:none;stroke-dashoffset:4;stroke-opacity:1"
         d="m 12.992438,16.944487 0,71.041496 102.295602,0 0,-71.041496 -102.295602,0 z"
         id="path1448" />
      <path
         id="path1450"
         d="m 14.356379,18.515302 0,68.470681 99.567721,0 0,-68.470681 -99.567721,0 z"
         style="fill:url(#radialGradient2616);fill-opacity:1;fill-rule:nonzero;stroke:none;stroke-width:3.63199997;stroke-linecap:round;stroke-linejoin:round;stroke-miterlimit:4;stroke-dasharray:none;stroke-dashoffset:4;stroke-opacity:1" />
      <rect
         rx="0.42543164"
         style="opacity:0.49590167;fill:url(#linearGradient2613);fill-opacity:1;fill-rule:nonzero;stroke:none;stroke-width:0.71249998;stroke-linecap:square;stroke-linejoin:miter;stroke-miterlimit:4;stroke-dasharray:none;stroke-dashoffset:4;stroke-opacity:1"
         id="rect2610"
         width="104.28042"
         height="4.2825627"
         x="11.96792"
         y="16.945702"
         ry="0.42543164" />
      <rect
         style="fill:url(#linearGradient2610);fill-opacity:1;fill-rule:nonzero;stroke:none;stroke-width:0.71249998;stroke-linecap:square;stroke-linejoin:miter;stroke-miterlimit:4;stroke-dasharray:none;stroke-dashoffset:4;stroke-opacity:1"
         id="rect2390"
         width="104.3954"
         height="6.6353011"
         x="11.9503"
         y="10.79854" />
      <rect
         y="11.246004"
         x="11.9503"
         height="0.70641261"
         width="104.3954"
         id="rect2604"
         style="fill:url(#linearGradient2607);fill-opacity:1;fill-rule:nonzero;stroke:none;stroke-width:0.71249998;stroke-linecap:square;stroke-linejoin:miter;stroke-miterlimit:4;stroke-dasharray:none;stroke-dashoffset:4;stroke-opacity:1" />
      <ellipse
         ry="2.6292059"
         rx="3.5978625"
         cy="114.57227"
         cx="63.486496"
         style="opacity:0.49590167;fill:url(#radialGradient2646);fill-opacity:1;fill-rule:nonzero;stroke:none;stroke-width:0.71249998;stroke-linecap:square;stroke-linejoin:miter;stroke-miterlimit:4;stroke-dasharray:none;stroke-dashoffset:4;stroke-opacity:1"
         id="path2676" />
      <rect
         style="opacity:0.26639344;fill:url(#linearGradient2603);fill-opacity:1;fill-rule:nonzero;stroke:none;stroke-width:0.71249998;stroke-linecap:square;stroke-linejoin:miter;stroke-miterlimit:4;stroke-dasharray:none;stroke-dashoffset:4;stroke-opacity:1"
         id="rect2740"
         width="104.3954"
         height="0.22208729"
         x="11.9503"
         y="15.425879" />
    </g>
    <g
       transform="translate(115,-15)"
       id="g4019">
      <g
         id="g3346"
         transform="matrix(0.29086936,0,0,0.28137101,-85.335968,-51.382494)">
        <path
           d="M 45.288136,492.61017 30,321.08475 l 168.16949,0 L 182.88136,492.61017 113.89831,512"
           id="path6"
           style="fill:#e34f26" />
        <path
           d="m 114.27119,497.08475 55.55932,-15.28814 13.05085,-146.91525 -68.61017,0"
           id="path8"
           style="fill:#ef652a" />
        <path
           d="m 114.27119,398.64407 -27.966105,0 -1.864407,-21.62712 29.830512,0 0,-20.88136 -0.37288,0 -52.576276,0 0.372881,5.59322 5.220339,58.1695 47.355936,0 z m 0,54.81356 -0.37288,0 -23.49153,-6.33899 -1.491526,-16.77966 -11.18644,0 -9.694916,0 2.61017,33.18644 43.254242,11.93221 0.37288,0 z"
           id="path10"
           style="fill:#ebebeb" />
        <path
           d="m 113.89831,398.64407 0,21.25424 26.10169,0 -2.61017,27.22033 -23.49152,6.33899 0,22 43.25423,-11.93221 0.37288,-3.72881 4.84746,-55.55932 0.74576,-5.59322 -5.9661,0 z m 0,-42.50848 0,13.05085 0,7.83051 0,0 51.08474,0 0,0 0,0 0.37288,-4.47458 1.11865,-10.81356 0.37288,-5.59322 z"
           id="path12"
           style="fill:#ffffff" />
      </g>
    </g>
  </g>
</svg>
