<?xml version="1.0" encoding="UTF-8" standalone="no"?>
<!-- Created with Inkscape (http://www.inkscape.org/) -->

<svg
   xmlns:dc="http://purl.org/dc/elements/1.1/"
   xmlns:cc="http://creativecommons.org/ns#"
   xmlns:rdf="http://www.w3.org/1999/02/22-rdf-syntax-ns#"
   xmlns:svg="http://www.w3.org/2000/svg"
   xmlns="http://www.w3.org/2000/svg"
   xmlns:sodipodi="http://sodipodi.sourceforge.net/DTD/sodipodi-0.dtd"
   xmlns:inkscape="http://www.inkscape.org/namespaces/inkscape"
   width="32"
   version="1.1"
   height="32"
   id="svg9"
   sodipodi:docname="application-pdf.svg"
   inkscape:version="0.92.5 (2060ec1f9f, 2020-04-08)">
  <sodipodi:namedview
     pagecolor="#ffffff"
     bordercolor="#666666"
     borderopacity="1"
     objecttolerance="10"
     gridtolerance="10"
     guidetolerance="10"
     inkscape:pageopacity="0"
     inkscape:pageshadow="2"
     inkscape:window-width="1366"
     inkscape:window-height="703"
     id="namedview11"
     showgrid="false"
     inkscape:zoom="10.727273"
     inkscape:cx="11"
     inkscape:cy="11"
     inkscape:window-x="0"
     inkscape:window-y="0"
     inkscape:window-maximized="1"
     inkscape:current-layer="layer1" />
  <defs
     id="defs3871" />
  <metadata
     id="metadata3874">
    <rdf:RDF>
      <cc:Work
         rdf:about="">
        <dc:format>image/svg+xml</dc:format>
        <dc:type
           rdf:resource="http://purl.org/dc/dcmitype/StillImage" />
        <dc:title></dc:title>
      </cc:Work>
    </rdf:RDF>
  </metadata>
  <g
     inkscape:label="Capa 1"
     inkscape:groupmode="layer"
     id="layer1"
     transform="translate(-326,-524.3622)">
    <rect
       width="0"
       x="273.38181"
       y="518.47876"
       height="14.668059"
       style="fill:#04896a"
       id="rect4035" />
    <rect
       width="0"
       x="280.34238"
       y="541.04938"
       height="14.668059"
       style="fill:#16907d"
       id="rect4035-8" />
    <rect
       width="0"
       x="282.15567"
       y="539.98865"
       height="14.668059"
       style="fill:#6c7a89"
       id="rect4035-0" />
    <path
       inkscape:label="Capa 1"
       inkscape:connector-curvature="0"
       style="fill:#cf000f;stroke-width:2.1751287"
       id="path26"
       d="m 333.04714,527.2944 c -0.35215,0.0218 -0.73039,0 -1.14559,0.2873 -3.70417,1.59385 -1.21966,5.96644 3.50185,9.29496 0.0283,-0.62705 0.28926,-1.99259 0.28274,-2.59352 -4.02806,-2.76154 -6.38447,-5.44995 -3.8172,-6.51579 2.70639,-1.12351 3.54637,1.94384 3.59419,6.39565 0.25216,0.26118 1.99897,1.42147 2.26418,1.60451 -0.0978,-4.06004 -2.25637,-8.20409 -4.33018,-8.43916 -0.11087,-0.0218 -0.2326,-0.0218 -0.34999,-0.0218 m 3.77096,7.06361 -0.84284,-0.32822 -0.69879,0.47078 -0.14074,1.48154 0.88265,0.6769 0.36631,0.49145 c 2.71726,1.80279 5.03222,3.1914 8.07772,4.33842 l 1.89929,0.28207 h 1.24994 c 1.15211,-0.67929 0.46519,-0.94068 4.65194,-1.46304 l -4.71716,0.36565 c -3.63895,-1.41081 -7.3524,-3.43691 -10.7305,-5.64736 m 8.30367,5.90963 c 0.54562,0 4.8028,-0.36935 6.4962,-0.52606 1.676,-0.2614 3.7346,-0.33975 3.34549,1.61975 0.44345,-1.04494 -0.567,-2.819 -2.00389,-3.13242 -2.22163,-0.49646 -5.74704,0.86494 -7.01436,1.28305 m 2.0425,0.54303 c -0.66083,0.2614 -2.17056,0.45032 -2.88357,0.68538 1.01082,0.52258 6.0859,2.39655 8.18145,2.00456 0.33476,0 1.7496,-1.01773 1.78438,-1.74947 -0.10868,1.33245 -6.31273,0.33975 -7.08226,-0.96658 m 1.38037,0.0239 c -0.54345,-0.26118 -3.08816,-0.24834 -3.65118,-0.45729 -3.18816,1.11524 -7.47653,3.73357 -10.54595,5.49958 l -0.88908,0.2614 c -0.17144,1.21971 -0.923,1.63978 -1.60862,2.42963 l 1.03908,1.04515 0.813,-1.33245 c 3.5933,-2.16845 10.6973,-5.67196 14.84058,-7.35461 m -14.84058,7.35461 c -0.43911,0.26118 -0.85865,0.52258 -1.25646,0.78376 -0.92169,2.61528 -1.99555,4.37607 -3.02159,4.30032 1.58471,0.75764 4.99799,-2.97592 6.14794,-6.48727 m -6.14794,6.48727 c -2.41727,-1.43692 2.69943,-4.05547 3.84503,-4.81572 0.25868,-0.73152 -0.44848,-1.94361 -0.21806,-2.80594 -3.60851,2.24702 -5.74208,5.49762 -4.53127,7.03902 0.29129,0.36587 0.59997,0.54869 0.90648,0.57481 m 3.51182,-5.47411 c 0.16803,-0.67341 2.39706,-2.20502 2.79922,-2.4403 0.53929,-4.24526 0.56497,-4.66445 1.02305,-7.96468 -0.2739,-0.26118 -1.95976,-1.57535 -2.22061,-1.75817 -0.32372,3.52701 -0.93254,8.30661 -1.79337,11.4991" />
  </g>
</svg>
