<?xml version="1.0" encoding="UTF-8" standalone="no"?>
<svg
   xmlns:dc="http://purl.org/dc/elements/1.1/"
   xmlns:cc="http://creativecommons.org/ns#"
   xmlns:rdf="http://www.w3.org/1999/02/22-rdf-syntax-ns#"
   xmlns:svg="http://www.w3.org/2000/svg"
   xmlns="http://www.w3.org/2000/svg"
   xmlns:xlink="http://www.w3.org/1999/xlink"
   xmlns:sodipodi="http://sodipodi.sourceforge.net/DTD/sodipodi-0.dtd"
   xmlns:inkscape="http://www.inkscape.org/namespaces/inkscape"
   id="svg8"
   version="1.1"
   viewBox="0 0 33.866667 33.866667"
   height="128"
   width="128"
   sodipodi:docname="rotation-x.svg"
   inkscape:version="0.92.5 (2060ec1f9f, 2020-04-08)"
   inkscape:export-filename="/home/pascal/Bureau/Temp/pampi/images2/rotation-x.png"
   inkscape:export-xdpi="48"
   inkscape:export-ydpi="48">
  <sodipodi:namedview
     pagecolor="#ffffff"
     bordercolor="#666666"
     borderopacity="1"
     objecttolerance="10"
     gridtolerance="10"
     guidetolerance="10"
     inkscape:pageopacity="0"
     inkscape:pageshadow="2"
     inkscape:window-width="871"
     inkscape:window-height="480"
     id="namedview13"
     showgrid="false"
     inkscape:zoom="1.3037281"
     inkscape:cx="58.973382"
     inkscape:cy="70.282487"
     inkscape:window-x="10"
     inkscape:window-y="0"
     inkscape:window-maximized="0"
     inkscape:current-layer="svg8" />
  <defs
     id="defs2">
    <linearGradient
       id="linearGradient877">
      <stop
         id="stop873"
         offset="0"
         style="stop-color:#464646;stop-opacity:0" />
      <stop
         id="stop875"
         offset="1"
         style="stop-color:#464646;stop-opacity:1" />
    </linearGradient>
    <linearGradient
       gradientTransform="matrix(0,0.11819145,-0.11819145,0,98.364793,-13.01019)"
       gradientUnits="userSpaceOnUse"
       y2="681.82501"
       x2="378.91885"
       y1="750.92548"
       x1="143.61633"
       id="linearGradient879"
       xlink:href="#linearGradient877" />
  </defs>
  <metadata
     id="metadata5">
    <rdf:RDF>
      <cc:Work
         rdf:about="">
        <dc:format>image/svg+xml</dc:format>
        <dc:type
           rdf:resource="http://purl.org/dc/dcmitype/StillImage" />
        <dc:title />
      </cc:Work>
    </rdf:RDF>
  </metadata>
  <path
     id="path837"
     d="M 2.2858501,12.934876 H 32.008092"
     style="fill:none;fill-rule:evenodd;stroke:#25a2dc;stroke-width:1.29645835;stroke-linecap:butt;stroke-linejoin:miter;stroke-miterlimit:4;stroke-dasharray:none;stroke-opacity:1"
     inkscape:connector-curvature="0" />
  <path
     d="M 25.992152,5.9071359 C 24.868563,4.3924503 23.474283,3.5233051 22.039201,3.2949207 c 1.437772,0.45236 2.801667,1.3212792 3.952951,2.6122152 z M 22.039201,3.2949207 C 19.056737,2.35656 15.754782,3.2199361 13.362057,5.8921321 9.8158995,9.8525699 9.5036803,16.399929 12.65083,20.806877 l -3.0838274,2.726253 6.1898164,3.765507 5.721666,3.359453 0.166207,-7.243383 0.04848,-6.63488 -5.661186,2.500948 C 13.682407,15.325246 13.915481,9.4485354 16.562919,5.8937474 18.084672,3.8504952 20.099243,2.9861895 22.0392,3.2949207 Z"
     style="fill:url(#linearGradient879);fill-opacity:1;stroke:#333333;stroke-width:1.58750002;stroke-linecap:round;stroke-linejoin:round;stroke-miterlimit:4;stroke-dasharray:none"
     id="path839"
     inkscape:connector-curvature="0" />
</svg>
