<?xml version="1.0" encoding="UTF-8" standalone="no"?>
<svg
   xmlns:dc="http://purl.org/dc/elements/1.1/"
   xmlns:cc="http://creativecommons.org/ns#"
   xmlns:rdf="http://www.w3.org/1999/02/22-rdf-syntax-ns#"
   xmlns:svg="http://www.w3.org/2000/svg"
   xmlns="http://www.w3.org/2000/svg"
   xmlns:xlink="http://www.w3.org/1999/xlink"
   xmlns:sodipodi="http://sodipodi.sourceforge.net/DTD/sodipodi-0.dtd"
   xmlns:inkscape="http://www.inkscape.org/namespaces/inkscape"
   id="svg8"
   version="1.1"
   viewBox="0 0 33.866667 33.866667"
   height="128"
   width="128"
   sodipodi:docname="rotation-z.svg"
   inkscape:version="0.92.5 (2060ec1f9f, 2020-04-08)"
   inkscape:export-filename="/home/pascal/Bureau/Temp/pampi/images2/rotation-z.png"
   inkscape:export-xdpi="48"
   inkscape:export-ydpi="48">
  <sodipodi:namedview
     pagecolor="#ffffff"
     bordercolor="#666666"
     borderopacity="1"
     objecttolerance="10"
     gridtolerance="10"
     guidetolerance="10"
     inkscape:pageopacity="0"
     inkscape:pageshadow="2"
     inkscape:window-width="871"
     inkscape:window-height="443"
     id="namedview8"
     showgrid="false"
     inkscape:zoom="1.84375"
     inkscape:cx="55.050847"
     inkscape:cy="64"
     inkscape:window-x="495"
     inkscape:window-y="260"
     inkscape:window-maximized="0"
     inkscape:current-layer="svg8" />
  <defs
     id="defs2">
    <linearGradient
       inkscape:collect="always"
       id="linearGradient821">
      <stop
         style="stop-color:#464646;stop-opacity:1"
         offset="0"
         id="stop817" />
      <stop
         style="stop-color:#464646;stop-opacity:0"
         offset="1"
         id="stop819" />
    </linearGradient>
    <linearGradient
       inkscape:collect="always"
       xlink:href="#linearGradient821"
       id="linearGradient823"
       x1="3.0815792"
       y1="16.68725"
       x2="30.589739"
       y2="17.261263"
       gradientUnits="userSpaceOnUse" />
  </defs>
  <metadata
     id="metadata5">
    <rdf:RDF>
      <cc:Work
         rdf:about="">
        <dc:format>image/svg+xml</dc:format>
        <dc:type
           rdf:resource="http://purl.org/dc/dcmitype/StillImage" />
        <dc:title></dc:title>
      </cc:Work>
    </rdf:RDF>
  </metadata>
  <circle
     style="fill:#25a2dc;stroke:#25a2dc;stroke-width:0.79375001;stroke-linecap:round;stroke-linejoin:round;stroke-opacity:1;fill-opacity:1;stroke-miterlimit:4;stroke-dasharray:none"
     id="path867"
     cx="16.83494"
     cy="19.115377"
     r="2.0192437" />
  <path
     inkscape:connector-curvature="0"
     id="path869"
     style="fill:url(#linearGradient823);stroke:#333333;stroke-width:1.58750002;stroke-linecap:round;stroke-linejoin:round;stroke-miterlimit:4;stroke-dasharray:none;fill-opacity:1;opacity:1"
     d="m 13.290187,3.000616 -4.090188,4.692137 -4.000714,4.768646 6.1087,1.196116 6.129966,1.080706 -1.247987,-3.641255 a 8.33877,7.8496461 0 0 1 0.789199,-0.03527 8.33877,7.8496461 0 0 1 8.33858,7.849707 8.33877,7.8496461 0 0 1 -8.33858,7.849707 8.33877,7.8496461 0 0 1 -8.33884,-7.849707 8.33877,7.8496461 0 0 1 0.08092,-1.091341 l -1.34991,0.02723 -3.128783,0.0044 A 12.786398,12.03639 0 0 0 4.19275,18.911414 12.786398,12.03639 0 0 0 16.979162,30.94778 12.786398,12.03639 0 0 0 29.765573,18.911407 12.786398,12.03639 0 0 0 16.979162,6.875034 12.786398,12.03639 0 0 0 14.766918,7.056578 Z" />
</svg>
